04:01:50  The lenght of the file is 142
04:01:52  Trans start at 2018/1/6 16:27:52
04:01:54  The length of the current buffer is 142
04:01:28  successfulFile Name is:E:\工作项目文件\CPE\WSForWrench\WSForWrench\Log\Copy.txt1


04:01:29  Trans end at 2018/1/6 16:28:29
04:01:10  The lenght of the file is 142
04:01:11  Trans start at 2018/1/6 16:30:11
04:01:12  The length of the current buffer is 142
04:01:13  successfulFile Name is:E:\工作项目文件\CPE\WSForWrench\WSForWrench\Log\Copy1.txt
File Lenght is:142
File Position is:142


04:01:13  Trans end at 2018/1/6 16:30:13
04:01:37  The lenght of the file is 142
04:01:37  Trans start at 2018/1/6 16:30:37
04:01:43  The length of the current buffer is 142
04:01:45  successfulFile Name is:E:\工作项目文件\CPE\WSForWrench\WSForWrench\Log\Copy1.txt
File Lenght is:284
File Position is:284


04:01:45  Trans end at 2018/1/6 16:30:45
2018/1/6 16:33:19  The lenght of the file is 142
2018/1/6 16:33:19  Trans start at 2018/1/6 16:33:19
2018/1/6 16:33:19  The length of the current buffer is 142
2018/1/6 16:33:19  successfulFile Name is:E:\工作项目文件\CPE\WSForWrench\WSForWrench\Log\Copy2.txt
File Lenght is:142
File Position is:142


2018/1/6 16:33:19  Trans end at 2018/1/6 16:33:19
2018/1/6 16:34:11  The lenght of the file is 142
2018/1/6 16:34:11  Trans start at 2018/1/6 16:34:11
2018/1/6 16:34:11  The length of the current buffer is 142
2018/1/6 16:34:34  successfulFile Name is:E:\工作项目文件\CPE\WSForWrench\WSForWrench\Log\Copy2.txt
File Lenght is:284
File Position is:284


2018/1/6 16:34:34  Trans end at 2018/1/6 16:34:34
2018/1/6 16:41:55  The lenght of the file is 24732946
2018/1/6 16:41:56  Trans start at 2018/1/6 16:41:56
2018/1/6 16:41:56  The length of the current buffer is 20971520
2018/1/6 16:41:58  successfulFile Name is:E:\工作项目文件\CPE\Copy.rar
File Lenght is:20971520


2018/1/6 16:41:58  Trans end at 2018/1/6 16:41:58
2018/1/6 16:41:58  Trans start at 2018/1/6 16:41:58
2018/1/6 16:41:58  The length of the current buffer is 3761426
2018/1/6 16:41:59  successfulFile Name is:E:\工作项目文件\CPE\Copy.rar
File Lenght is:24732946


2018/1/6 16:41:59  Trans end at 2018/1/6 16:41:59
2018/1/6 17:30:53  32人
